DestinationCode1,DestinationCode2,DistancesInKms
ADL,CBR,957,
ADL,DRW,2616,
ADL,PER,2129,
AMS,CDG,427,
AMS,FCO,1307,
AMS,HEL,1503,
AMS,MAD,1479,
AMS,MUC,666,
AMS,ORY,427,
ATL,MIA,974,
ATL,YYZ,1122,
BKK,HKG,1725,
BKK,KUL,1185,
BKK,NRT,4605,
BKK,SFO,12700,
BKK,SIN,1429,
BNE,ADL,1597,
BNE,ATL,14537,
BNE,BKK,7278,
BNE,CBR,939,
BNE,DOH,12324,
BNE,DRW,2847,
BNE,GIG,14136,
BNE,HKG,6925,
BNE,HNL,7566,
BNE,JFK,15493,
BNE,JNB,11628,
BNE,KUL,6456,
BNE,LAX,11559,
BNE,LGA,15493,
BNE,MIA,14753,
BNE,NRT,7155,
BNE,ORD,14355,
BNE,PER,3601,
BNE,SFO,11390,
BNE,SIN,6145,
BNE,YYZ,15075,
CBR,DRW,3131,
CBR,OOL,892,
CDG,FCO,1120,
CDG,MAD,1053,
CDG,MUC,685,
CDG,ORY,0,
FCO,MUC,708,
HEL,CDG,1908,
HEL,FCO,2208,
HEL,MAD,2948,
HEL,MUC,1589,
HEL,ORY,1908,
HKG,KUL,2513,
HKG,NRT,2886,
HKG,SIN,2582,
HNL,ATL,7224,
HNL,MIA,7810,
HNL,YYZ,7535,
JFK,ATL,1202,
JFK,HNL,7976,
JFK,LGA,0,
JFK,MIA,1760,
JFK,ORD,1144,
JFK,YYZ,468,
KUL,NRT,5320,
KUL,SIN,312,
LAX,ATL,3107,
LAX,HNL,4117,
LAX,JFK,3933,
LAX,LGA,3933,
LAX,MIA,3755,
LAX,ORD,2800,
LAX,YYZ,3527,
LGA,ATL,1202,
LGA,HNL,7976,
LGA,MIA,1760,
LGA,ORD,1144,
LGA,YYZ,468,
LGW,AMS,359,
LGW,ATL,6763,
LGW,BKK,9530,
LGW,CDG,342,
LGW,DOH,5212,
LGW,FCO,1448,
LGW,GIG,9269,
LGW,HEL,1823,
LGW,HKG,9625,
LGW,HNL,11624,
LGW,JFK,5560,
LGW,JNB,9059,
LGW,KUL,10542,
LGW,LAX,8747,
LGW,LGA,5560,
LGW,MAD,1262,
LGW,MIA,7119,
LGW,MUC,920,
LGW,NRT,9558,
LGW,ORD,6347,
LGW,ORY,342,
LGW,SFO,8608,
LGW,SIN,10871,
LGW,VIE,1234,
LGW,YYZ,5727,
LHR,AMS,359,
LHR,ATL,6763,
LHR,BKK,9530,
LHR,CDG,342,
LHR,DOH,5212,
LHR,FCO,1448,
LHR,GIG,9269,
LHR,HEL,1823,
LHR,HKG,9625,
LHR,HNL,11624,
LHR,JFK,5560,
LHR,JNB,9059,
LHR,KUL,10542,
LHR,LAX,8747,
LHR,LGA,5560,
LHR,LGW,0,
LHR,MAD,1262,
LHR,MIA,7119,
LHR,MUC,920,
LHR,NRT,9558,
LHR,ORD,6347,
LHR,ORY,342,
LHR,SFO,8608,
LHR,SIN,10871,
LHR,VIE,1234,
LHR,YYZ,5727,
MAD,FCO,1370,
MAD,MUC,1483,
MEL,ADL,651,
MEL,AMS,16533,
MEL,ATL,15580,
MEL,BKK,7363,
MEL,BNE,1367,
MEL,CBR,464,
MEL,CDG,16779,
MEL,DOH,11970,
MEL,DRW,3143,
MEL,FCO,15962,
MEL,GIG,13204,
MEL,HEL,15192,
MEL,HKG,7406,
MEL,HNL,8870,
MEL,JFK,16661,
MEL,JNB,10326,
MEL,KUL,6360,
MEL,LAX,12764,
MEL,LGA,16661,
MEL,LGW,16893,
MEL,LHR,16893,
MEL,MAD,17296,
MEL,MIA,15577,
MEL,MUC,16105,
MEL,NRT,8179,
MEL,ORD,15559,
MEL,ORY,16779,
MEL,PER,2719,
MEL,SFO,12647,
MEL,SIN,6064,
MEL,VIE,15752,
MEL,YYZ,16287,
MIA,YYZ,1905,
ORD,ATL,946,
ORD,HNL,6832,
ORD,MIA,1915,
ORD,YYZ,727,
ORY,FCO,1120,
ORY,MAD,1053,
ORY,MUC,685,
PER,AMS,14133,
PER,ATL,18102,
PER,BKK,5333,
PER,CBR,3086,
PER,CDG,14270,
PER,DOH,9322,
PER,DRW,2649,
PER,FCO,13318,
PER,GIG,13514,
PER,HEL,13084,
PER,HKG,6025,
PER,HNL,10900,
PER,JFK,18686,
PER,JNB,8312,
PER,KUL,4175,
PER,LAX,15013,
PER,LGA,18686,
PER,LGW,14472,
PER,LHR,14472,
PER,MAD,14604,
PER,MIA,18296,
PER,MUC,13585,
PER,NRT,7915,
PER,ORD,17650,
PER,ORY,14270,
PER,SFO,14733,
PER,SIN,3905,
PER,VIE,13246,
PER,YYZ,18226,
SFO,ATL,3433,
SFO,HNL,3852,
SFO,JFK,4125,
SFO,LAX,558,
SFO,LGA,4125,
SFO,MIA,4165,
SFO,ORD,2981,
SFO,YYZ,3689,
SIN,NRT,5317,
SYD,ADL,1167,
SYD,AMS,16631,
SYD,ATL,14935,
SYD,BKK,7528,
SYD,BNE,728,
SYD,CBR,246,
SYD,CDG,16949,
SYD,DOH,12373,
SYD,DRW,3146,
SYD,FCO,16300,
SYD,GIG,13512,
SYD,HEL,15188,
SYD,HKG,7363,
SYD,HNL,8160,
SYD,JFK,15979,
SYD,JNB,11036,
SYD,KUL,6608,
SYD,LAX,12092,
SYD,LGA,15979,
SYD,LGW,16984,
SYD,LHR,16984,
SYD,MAD,17670,
SYD,MEL,713,
SYD,MIA,15016,
SYD,MUC,16316,
SYD,NRT,7817,
SYD,OOL,679,
SYD,ORD,14865,
SYD,ORY,16949,
SYD,PER,3286,
SYD,SFO,11940,
SYD,SIN,6296,
SYD,VIE,15964,
SYD,YYZ,15593,
VIE,AMS,931,
VIE,CDG,1032,
VIE,FCO,775,
VIE,HEL,1434,
VIE,MAD,1809,
VIE,MUC,354,
VIE,ORY,1032