TicketCode,Name,Transferrable,Refundable,Exchangeable,FrequentFlyerPoints
A,Standby,0,0,0,0
B,Premium Discounted,0,0,0,0
C,Discounted,0,0,0,1
D,Standard,0,0,0,1
E,Premium,1,0,1,1
F,ld,1,1,1,1
G,Platinum,1,1,1,1